OSYM 2017 Data Analysis
…
## # A tibble: 5 x 4
##   exam_type quota placement Doluluk
##       <chr> <int>     <int>   <dbl>
## 1     DIL_1    40        40    1.00
## 2      MF_1    20        20    1.00
## 3      MF_4   327       327    1.00
## 4      TM_1    80        66    0.82
## 5      TM_3   350       315    0.90

Top Quota by City

osym_data_2017 %>% group_by(city) %>%  summarise(quota=sum(general_quota)) %>% arrange(desc(quota))

## # A tibble: 97 x 2
##         city quota
##        <chr> <int>
##  1  ISTANBUL 97322
##  2 ESKISEHIR 59809
##  3    ANKARA 35745
##  4     IZMIR 18301
##  5     KONYA 16240
##  6   ERZURUM 14041
##  7   ANTALYA  8833
##  8   TRABZON  7865
##  9   KAYSERI  7683
## 10   ISPARTA  7253
## # ... with 87 more rows

Top Placement by University

osym_data_2017 %>% group_by(university_name) %>%  summarise(placement=sum(general_placement)) %>% arrange(desc(placement))

## # A tibble: 200 x 2
##                  university_name placement
##                            <chr>     <int>
##  1         ISTANBUL NIVERSITESI     13194
##  2          ANADOLU NIVERSITESI     12864
##  3          ATATRK NIVERSITESI      9320
##  4           SELUK NIVERSITESI      8358
##  5      DOKUZ EYLL NIVERSITESI      7621
##  6             GAZI NIVERSITESI      7497
##  7          SAKARYA NIVERSITESI      7149
##  8 SLEYMAN DEMIREL NIVERSITESI      6895
##  9          ERCIYES NIVERSITESI      6869
## 10          KOCAELI NIVERSITESI      6752
## # ... with 190 more rows

Top Placement by Program

osym_data_2017 %>% group_by(program_name) %>%  summarise(placement=sum(general_placement)) %>% arrange(desc(placement))

## # A tibble: 2,151 x 2
##              program_name placement
##                     <chr>     <int>
##  1             Hemsirelik     10835
##  2               Ilahiyat      8805
##  3                    Tip      8655
##  4                  Hukuk      7390
##  5                Isletme      7036
##  6                Iktisat      6910
##  7                  Tarih      5842
##  8 Trk Dili ve Edebiyati      5787
##  9    Insaat Mhendisligi      4997
## 10     Sinif gretmenligi      4908
## # ... with 2,141 more rows

Hight avereage based on min_score by University

osym_data_2017 %>% group_by(university_name) %>%  summarise(score=mean(min_score)) %>% arrange(desc(score))

## # A tibble: 200 x 2
##                           university_name    score
##                                     <chr>    <dbl>
##  1               GALATASARAY NIVERSITESI 456.1192
##  2                       KO NIVERSITESI 453.9176
##  3            AZERBAYCAN TIP NIVERSITESI 437.8358
##  4                  BOGAZII NIVERSITESI 435.3811
##  5                IBN HALDUN NIVERSITESI 422.3635
##  6              ABDULLAH GL NIVERSITESI 412.3217
##  7                   SABANCI NIVERSITESI 410.4619
##  8 TOBB EKONOMI VE TEKNOLOJI NIVERSITESI 400.5025
##  9   IHSAN DOGRAMACI BILKENT NIVERSITESI 397.4789
## 10          SAGLIK BILIMLERI NIVERSITESI 394.8102
## # ... with 190 more rows
…
